Limma-voom paired analysis EXCLUDING US-ab samples
…
$genes
             Geneid Length
1 ENSG00000223972.5   1735
2 ENSG00000227232.5   1351
3 ENSG00000278267.1     68
4 ENSG00000243485.5   1021
5 ENSG00000284332.1    138
60664 more rows ...

Load sample information and file names. Exclude samples with ultrasound abnormalities.

# A tibble: 23 x 7
   id    CMV_status pair  sex   GA_at_amnio indication batch
   <chr> <chr>      <chr> <chr> <chr>       <chr>      <fct>
 1 CMV30 pos        L1    F     21          no_us_ab   1    
 2 CMV31 neg        L1    F     21          no_us_ab   1    
 3 CMV8  neg        L2    F     23          no_us_ab   1    
 4 CMV9  pos        L2    F     23          no_us_ab   1    
 5 CMV26 pos        L3    F     22          no_us_ab   1    
 6 CMV14 neg        L4    F     21          no_us_ab   1    
 7 CMV15 pos        L4    F     22          no_us_ab   1    
 8 CMV20 pos        L5    M     21          no_us_ab   1    
 9 CMV21 neg        NC1   F     21          no_us_ab   1    
10 CMV1  pos        M1    F     21          no_us_ab   1    
# … with 13 more rows
…
[[2]]
NULL

[[3]]
NULL

[[4]]
NULL

Brain development genes

Test only the specialised brain development gene set for differential expression between CMV positive and CMV negative samples. This reduces the multiple testing burden and can identify DEGs from a particular set of interest.

# A tibble: 51 x 1
   BRAIN_DEV 
   <chr>     
 1 AC139768.1
 2 ADGRG1    
 3 AFF2      
 4 ALK       
 5 ALX1      
 6 BPTF      
 7 CDK5R1    
 8 CEP290    
 9 CLN5      
10 CNTN4     
# … with 41 more rows
…
